[
	{ "code": "de", "flag": "🇩🇪", "text": "Deutsch" },
	{ "code": "en", "flag": "🇬🇧", "text": "English" },
	{ "code": "fr", "flag": "🇫🇷", "text": "Français" },
	{ "code": "it", "flag": "🇮🇹", "text": "Italiano" },
	{ "code": "pl", "flag": "🇵🇱", "text": "Polski" },
	{ "code": "pt", "flag": "🇵🇹", "text": "Português" },
	{ "code": "es", "flag": "🇪🇸", "text": "Španielčina" }
]
